; SPDX-FileCopyrightText: 2021 Adriel Dumas--Jondeau
; SPDX-FileCopyrightText: 2021 Luc Deligne
;
; SPDX-License-Identifier: MIT

[gd_scene load_steps=23 format=2]

[ext_resource path="res://mobs/dragon/DragonIdle.png" type="Texture" id=1]
[ext_resource path="res://mobs/dragon/Dragon.gd" type="Script" id=2]
[ext_resource path="res://guns/mobs/dragon/DragonShooter.tscn" type="PackedScene" id=3]
[ext_resource path="res://mobs/dragon/DragonLoot.tscn" type="PackedScene" id=4]
[ext_resource path="res://mobs/dragon/DragonShoot.png" type="Texture" id=5]
[ext_resource path="res://mobs/dragon/DragonCharge.png" type="Texture" id=6]

[sub_resource type="AtlasTexture" id=1]
atlas = ExtResource( 1 )
region = Rect2( 0, 0, 184, 88 )

[sub_resource type="AtlasTexture" id=2]
atlas = ExtResource( 1 )
region = Rect2( 184, 0, 184, 88 )

[sub_resource type="AtlasTexture" id=3]
atlas = ExtResource( 1 )
region = Rect2( 368, 0, 184, 88 )

[sub_resource type="AtlasTexture" id=4]
atlas = ExtResource( 1 )
region = Rect2( 552, 0, 184, 88 )

[sub_resource type="AtlasTexture" id=5]
atlas = ExtResource( 1 )
region = Rect2( 736, 0, 184, 88 )

[sub_resource type="AtlasTexture" id=6]
atlas = ExtResource( 1 )
region = Rect2( 920, 0, 184, 88 )

[sub_resource type="AtlasTexture" id=7]
atlas = ExtResource( 6 )
region = Rect2( 0, 0, 184, 88 )

[sub_resource type="AtlasTexture" id=8]
atlas = ExtResource( 6 )
region = Rect2( 184, 0, 184, 88 )

[sub_resource type="AtlasTexture" id=9]
atlas = ExtResource( 6 )
region = Rect2( 368, 0, 184, 88 )

[sub_resource type="AtlasTexture" id=10]
atlas = ExtResource( 6 )
region = Rect2( 552, 0, 184, 88 )

[sub_resource type="AtlasTexture" id=11]
atlas = ExtResource( 6 )
region = Rect2( 736, 0, 184, 88 )

[sub_resource type="AtlasTexture" id=12]
atlas = ExtResource( 6 )
region = Rect2( 920, 0, 184, 88 )

[sub_resource type="AtlasTexture" id=13]
atlas = ExtResource( 5 )
region = Rect2( 0, 0, 184, 88 )

[sub_resource type="SpriteFrames" id=14]
animations = [ {
"frames": [ SubResource( 1 ), SubResource( 2 ), SubResource( 3 ), SubResource( 4 ), SubResource( 5 ), SubResource( 6 ) ],
"loop": true,
"name": "default",
"speed": 20.0
}, {
"frames": [ SubResource( 7 ), SubResource( 8 ), SubResource( 9 ), SubResource( 10 ), SubResource( 11 ), SubResource( 12 ) ],
"loop": true,
"name": "load",
"speed": 20.0
}, {
"frames": [ SubResource( 13 ) ],
"loop": true,
"name": "shoot",
"speed": 1.0
} ]

[sub_resource type="CapsuleShape2D" id=15]
radius = 13.0
height = 40.0

[sub_resource type="CapsuleShape2D" id=16]
radius = 13.0
height = 40.0

[node name="Dragon" type="KinematicBody2D" groups=[
"mobs",
]]
position = Vector2( 0, -1 )
collision_layer = 2
collision_mask = 2
script = ExtResource( 2 )
loot = ExtResource( 4 )
life = 20
speed = 120.0
vanguard = Vector2( 0.667, 0.333 )

[node name="Sprite" type="AnimatedSprite" parent="."]
position = Vector2( 32, -7 )
frames = SubResource( 14 )
playing = true

[node name="Hitbox" type="CollisionShape2D" parent="."]
position = Vector2( 2, -8 )
rotation = 1.13446
shape = SubResource( 15 )

[node name="CollisionArea" type="Area2D" parent="."]
collision_layer = 5
collision_mask = 5

[node name="Hitbox" type="CollisionShape2D" parent="CollisionArea"]
position = Vector2( 2, -8 )
rotation = 1.13446
shape = SubResource( 16 )

[node name="Shooter" parent="." instance=ExtResource( 3 )]
position = Vector2( -25, 1.00003 )
auto_shoot = false
rate = 0.2
ammo_per_burst = 30

[connection signal="shot" from="Shooter" to="." method="_on_Shooter_shot"]
