; SPDX-FileCopyrightText: 2021 Adriel Dumas--Jondeau
; SPDX-FileCopyrightText: 2021 Luc Deligne
;
; SPDX-License-Identifier: MIT

[gd_scene load_steps=4 format=2]

[ext_resource path="res://guns/addons/spread/SpreadBullet.png" type="Texture" id=1]
[ext_resource path="res://guns/addons/spread/SpreadBullet.gd" type="Script" id=2]

[sub_resource type="CircleShape2D" id=1]
radius = 5.0

[node name="SpreadBullet" type="Area2D"]
collision_layer = 3
collision_mask = 3
script = ExtResource( 2 )
speed = 360.0

[node name="CollisionShape2D" type="CollisionShape2D" parent="."]
rotation = 1.5708
shape = SubResource( 1 )

[node name="Sprite" type="Sprite" parent="."]
texture = ExtResource( 1 )
