; SPDX-FileCopyrightText: 2021 Adriel Dumas--Jondeau
; SPDX-FileCopyrightText: 2021 Luc Deligne
;
; SPDX-License-Identifier: MIT

[gd_scene load_steps=123 format=2]

[ext_resource path="res://effects/AddonExplosion.png" type="Texture" id=1]
[ext_resource path="res://effects/MissileImpact.png" type="Texture" id=2]
[ext_resource path="res://effects/BaseImpact.png" type="Texture" id=3]
[ext_resource path="res://effects/SpreadImpact.png" type="Texture" id=4]
[ext_resource path="res://effects/PistolImpact.png" type="Texture" id=5]
[ext_resource path="res://effects/AbsorberImpact.png" type="Texture" id=6]
[ext_resource path="res://effects/AbsorberMuzzle.png" type="Texture" id=7]
[ext_resource path="res://effects/SpreadMuzzle.png" type="Texture" id=8]
[ext_resource path="res://effects/MissileMuzzle.png" type="Texture" id=9]
[ext_resource path="res://effects/BaseMuzzle.png" type="Texture" id=10]
[ext_resource path="res://effects/PistolMuzzle.png" type="Texture" id=11]
[ext_resource path="res://effects/MobBaseImpact.png" type="Texture" id=12]
[ext_resource path="res://effects/MobBaseMuzzle.png" type="Texture" id=13]
[ext_resource path="res://effects/MobStalkerMuzzle.png" type="Texture" id=14]
[ext_resource path="res://effects/MobDragonImpact.png" type="Texture" id=15]
[ext_resource path="res://effects/MobStalkerImpact.png" type="Texture" id=16]
[ext_resource path="res://effects/PlayerDeathFlash.png" type="Texture" id=17]
[ext_resource path="res://effects/PlayerDeathOrb.png" type="Texture" id=18]

[sub_resource type="AtlasTexture" id=1]
atlas = ExtResource( 3 )
region = Rect2( 0, 0, 11, 11 )

[sub_resource type="AtlasTexture" id=2]
atlas = ExtResource( 3 )
region = Rect2( 11, 0, 11, 11 )

[sub_resource type="AtlasTexture" id=3]
atlas = ExtResource( 3 )
region = Rect2( 22, 0, 11, 11 )

[sub_resource type="AtlasTexture" id=4]
atlas = ExtResource( 3 )
region = Rect2( 33, 0, 11, 11 )

[sub_resource type="AtlasTexture" id=5]
atlas = ExtResource( 3 )
region = Rect2( 44, 0, 11, 11 )

[sub_resource type="AtlasTexture" id=6]
atlas = ExtResource( 3 )
region = Rect2( 55, 0, 11, 11 )

[sub_resource type="AtlasTexture" id=7]
atlas = ExtResource( 6 )
region = Rect2( 0, 0, 16, 16 )

[sub_resource type="AtlasTexture" id=8]
atlas = ExtResource( 6 )
region = Rect2( 16, 0, 16, 16 )

[sub_resource type="AtlasTexture" id=9]
atlas = ExtResource( 6 )
region = Rect2( 32, 0, 16, 16 )

[sub_resource type="AtlasTexture" id=10]
atlas = ExtResource( 6 )
region = Rect2( 48, 0, 16, 16 )

[sub_resource type="AtlasTexture" id=11]
atlas = ExtResource( 6 )
region = Rect2( 64, 0, 16, 16 )

[sub_resource type="AtlasTexture" id=12]
atlas = ExtResource( 6 )
region = Rect2( 80, 0, 16, 16 )

[sub_resource type="AtlasTexture" id=13]
atlas = ExtResource( 6 )
region = Rect2( 96, 0, 16, 16 )

[sub_resource type="AtlasTexture" id=14]
atlas = ExtResource( 5 )
region = Rect2( 0, 0, 11, 10 )

[sub_resource type="AtlasTexture" id=15]
atlas = ExtResource( 5 )
region = Rect2( 11, 0, 11, 10 )

[sub_resource type="AtlasTexture" id=16]
atlas = ExtResource( 5 )
region = Rect2( 22, 0, 11, 10 )

[sub_resource type="AtlasTexture" id=17]
atlas = ExtResource( 5 )
region = Rect2( 33, 0, 11, 10 )

[sub_resource type="AtlasTexture" id=18]
atlas = ExtResource( 5 )
region = Rect2( 44, 0, 11, 10 )

[sub_resource type="AtlasTexture" id=19]
atlas = ExtResource( 5 )
region = Rect2( 55, 0, 11, 10 )

[sub_resource type="AtlasTexture" id=20]
atlas = ExtResource( 11 )
region = Rect2( 0, 0, 16, 9 )

[sub_resource type="AtlasTexture" id=21]
atlas = ExtResource( 11 )
region = Rect2( 16, 0, 16, 9 )

[sub_resource type="AtlasTexture" id=22]
atlas = ExtResource( 11 )
region = Rect2( 32, 0, 16, 9 )

[sub_resource type="AtlasTexture" id=23]
atlas = ExtResource( 2 )
region = Rect2( 0, 0, 16, 16 )

[sub_resource type="AtlasTexture" id=24]
atlas = ExtResource( 2 )
region = Rect2( 16, 0, 16, 16 )

[sub_resource type="AtlasTexture" id=25]
atlas = ExtResource( 2 )
region = Rect2( 32, 0, 16, 16 )

[sub_resource type="AtlasTexture" id=26]
atlas = ExtResource( 2 )
region = Rect2( 48, 0, 16, 16 )

[sub_resource type="AtlasTexture" id=27]
atlas = ExtResource( 2 )
region = Rect2( 64, 0, 16, 16 )

[sub_resource type="AtlasTexture" id=28]
atlas = ExtResource( 2 )
region = Rect2( 80, 0, 16, 16 )

[sub_resource type="AtlasTexture" id=29]
atlas = ExtResource( 2 )
region = Rect2( 96, 0, 16, 16 )

[sub_resource type="AtlasTexture" id=30]
atlas = ExtResource( 8 )
region = Rect2( 0, 0, 12, 10 )

[sub_resource type="AtlasTexture" id=31]
atlas = ExtResource( 8 )
region = Rect2( 12, 0, 12, 10 )

[sub_resource type="AtlasTexture" id=32]
atlas = ExtResource( 13 )
region = Rect2( 0, 0, 15, 9 )

[sub_resource type="AtlasTexture" id=33]
atlas = ExtResource( 13 )
region = Rect2( 15, 0, 15, 9 )

[sub_resource type="AtlasTexture" id=34]
atlas = ExtResource( 13 )
region = Rect2( 30, 0, 15, 9 )

[sub_resource type="AtlasTexture" id=35]
atlas = ExtResource( 13 )
region = Rect2( 45, 0, 15, 9 )

[sub_resource type="AtlasTexture" id=36]
atlas = ExtResource( 16 )
region = Rect2( 0, 0, 13, 13 )

[sub_resource type="AtlasTexture" id=37]
atlas = ExtResource( 16 )
region = Rect2( 13, 0, 13, 13 )

[sub_resource type="AtlasTexture" id=38]
atlas = ExtResource( 16 )
region = Rect2( 26, 0, 13, 13 )

[sub_resource type="AtlasTexture" id=39]
atlas = ExtResource( 16 )
region = Rect2( 39, 0, 13, 13 )

[sub_resource type="AtlasTexture" id=40]
atlas = ExtResource( 16 )
region = Rect2( 52, 0, 13, 13 )

[sub_resource type="AtlasTexture" id=41]
atlas = ExtResource( 16 )
region = Rect2( 65, 0, 13, 13 )

[sub_resource type="AtlasTexture" id=42]
atlas = ExtResource( 16 )
region = Rect2( 78, 0, 13, 13 )

[sub_resource type="AtlasTexture" id=43]
atlas = ExtResource( 15 )
region = Rect2( 0, 0, 16, 16 )

[sub_resource type="AtlasTexture" id=44]
atlas = ExtResource( 15 )
region = Rect2( 16, 0, 16, 16 )

[sub_resource type="AtlasTexture" id=45]
atlas = ExtResource( 15 )
region = Rect2( 32, 0, 16, 16 )

[sub_resource type="AtlasTexture" id=46]
atlas = ExtResource( 15 )
region = Rect2( 48, 0, 16, 16 )

[sub_resource type="AtlasTexture" id=47]
atlas = ExtResource( 15 )
region = Rect2( 64, 0, 16, 16 )

[sub_resource type="AtlasTexture" id=48]
atlas = ExtResource( 15 )
region = Rect2( 80, 0, 16, 16 )

[sub_resource type="AtlasTexture" id=49]
atlas = ExtResource( 15 )
region = Rect2( 96, 0, 16, 16 )

[sub_resource type="AtlasTexture" id=50]
atlas = ExtResource( 14 )
region = Rect2( 0, 0, 13, 13 )

[sub_resource type="AtlasTexture" id=51]
atlas = ExtResource( 14 )
region = Rect2( 13, 0, 13, 13 )

[sub_resource type="AtlasTexture" id=52]
atlas = ExtResource( 14 )
region = Rect2( 26, 0, 13, 13 )

[sub_resource type="AtlasTexture" id=53]
atlas = ExtResource( 14 )
region = Rect2( 39, 0, 13, 13 )

[sub_resource type="AtlasTexture" id=54]
atlas = ExtResource( 9 )
region = Rect2( 0, 0, 13, 13 )

[sub_resource type="AtlasTexture" id=55]
atlas = ExtResource( 9 )
region = Rect2( 13, 0, 13, 13 )

[sub_resource type="AtlasTexture" id=56]
atlas = ExtResource( 9 )
region = Rect2( 26, 0, 13, 13 )

[sub_resource type="AtlasTexture" id=57]
atlas = ExtResource( 9 )
region = Rect2( 39, 0, 13, 13 )

[sub_resource type="AtlasTexture" id=58]
atlas = ExtResource( 9 )
region = Rect2( 52, 0, 13, 13 )

[sub_resource type="AtlasTexture" id=59]
atlas = ExtResource( 9 )
region = Rect2( 65, 0, 13, 13 )

[sub_resource type="AtlasTexture" id=60]
atlas = ExtResource( 9 )
region = Rect2( 78, 0, 13, 13 )

[sub_resource type="AtlasTexture" id=61]
atlas = ExtResource( 18 )
region = Rect2( 0, 0, 20, 20 )

[sub_resource type="AtlasTexture" id=62]
atlas = ExtResource( 18 )
region = Rect2( 20, 0, 20, 20 )

[sub_resource type="AtlasTexture" id=63]
atlas = ExtResource( 18 )
region = Rect2( 40, 0, 20, 20 )

[sub_resource type="AtlasTexture" id=64]
atlas = ExtResource( 18 )
region = Rect2( 60, 0, 20, 20 )

[sub_resource type="AtlasTexture" id=65]
atlas = ExtResource( 18 )
region = Rect2( 80, 0, 20, 20 )

[sub_resource type="AtlasTexture" id=66]
atlas = ExtResource( 10 )
region = Rect2( 0, 0, 15, 9 )

[sub_resource type="AtlasTexture" id=67]
atlas = ExtResource( 10 )
region = Rect2( 15, 0, 15, 9 )

[sub_resource type="AtlasTexture" id=68]
atlas = ExtResource( 10 )
region = Rect2( 30, 0, 15, 9 )

[sub_resource type="AtlasTexture" id=69]
atlas = ExtResource( 1 )
region = Rect2( 0, 0, 94, 94 )

[sub_resource type="AtlasTexture" id=70]
atlas = ExtResource( 1 )
region = Rect2( 94, 0, 94, 94 )

[sub_resource type="AtlasTexture" id=71]
atlas = ExtResource( 1 )
region = Rect2( 188, 0, 94, 94 )

[sub_resource type="AtlasTexture" id=72]
atlas = ExtResource( 1 )
region = Rect2( 282, 0, 94, 94 )

[sub_resource type="AtlasTexture" id=73]
atlas = ExtResource( 1 )
region = Rect2( 376, 0, 94, 94 )

[sub_resource type="AtlasTexture" id=74]
atlas = ExtResource( 1 )
region = Rect2( 470, 0, 94, 94 )

[sub_resource type="AtlasTexture" id=75]
atlas = ExtResource( 1 )
region = Rect2( 564, 0, 94, 94 )

[sub_resource type="AtlasTexture" id=76]
atlas = ExtResource( 1 )
region = Rect2( 658, 0, 94, 94 )

[sub_resource type="AtlasTexture" id=77]
atlas = ExtResource( 1 )
region = Rect2( 752, 0, 94, 94 )

[sub_resource type="AtlasTexture" id=78]
atlas = ExtResource( 1 )
region = Rect2( 846, 0, 94, 94 )

[sub_resource type="AtlasTexture" id=79]
atlas = ExtResource( 1 )
region = Rect2( 940, 0, 94, 94 )

[sub_resource type="AtlasTexture" id=80]
atlas = ExtResource( 1 )
region = Rect2( 1034, 0, 94, 94 )

[sub_resource type="AtlasTexture" id=81]
atlas = ExtResource( 4 )
region = Rect2( 0, 0, 13, 12 )

[sub_resource type="AtlasTexture" id=82]
atlas = ExtResource( 4 )
region = Rect2( 13, 0, 13, 12 )

[sub_resource type="AtlasTexture" id=83]
atlas = ExtResource( 4 )
region = Rect2( 26, 0, 13, 12 )

[sub_resource type="AtlasTexture" id=84]
atlas = ExtResource( 4 )
region = Rect2( 39, 0, 13, 12 )

[sub_resource type="AtlasTexture" id=85]
atlas = ExtResource( 4 )
region = Rect2( 52, 0, 13, 12 )

[sub_resource type="AtlasTexture" id=86]
atlas = ExtResource( 4 )
region = Rect2( 65, 0, 13, 12 )

[sub_resource type="AtlasTexture" id=87]
atlas = ExtResource( 4 )
region = Rect2( 78, 0, 13, 12 )

[sub_resource type="AtlasTexture" id=88]
atlas = ExtResource( 17 )
region = Rect2( 0, 0, 46, 46 )

[sub_resource type="AtlasTexture" id=89]
atlas = ExtResource( 17 )
region = Rect2( 46, 0, 46, 46 )

[sub_resource type="AtlasTexture" id=90]
atlas = ExtResource( 17 )
region = Rect2( 92, 0, 46, 46 )

[sub_resource type="AtlasTexture" id=91]
atlas = ExtResource( 17 )
region = Rect2( 138, 0, 46, 46 )

[sub_resource type="AtlasTexture" id=92]
atlas = ExtResource( 17 )
region = Rect2( 184, 0, 46, 46 )

[sub_resource type="AtlasTexture" id=93]
atlas = ExtResource( 17 )
region = Rect2( 230, 0, 46, 46 )

[sub_resource type="AtlasTexture" id=94]
atlas = ExtResource( 7 )
region = Rect2( 0, 0, 13, 11 )

[sub_resource type="AtlasTexture" id=95]
atlas = ExtResource( 7 )
region = Rect2( 13, 0, 13, 11 )

[sub_resource type="AtlasTexture" id=96]
atlas = ExtResource( 7 )
region = Rect2( 26, 0, 13, 11 )

[sub_resource type="AtlasTexture" id=97]
atlas = ExtResource( 7 )
region = Rect2( 39, 0, 13, 11 )

[sub_resource type="AtlasTexture" id=98]
atlas = ExtResource( 12 )
region = Rect2( 0, 0, 11, 11 )

[sub_resource type="AtlasTexture" id=99]
atlas = ExtResource( 12 )
region = Rect2( 11, 0, 11, 11 )

[sub_resource type="AtlasTexture" id=100]
atlas = ExtResource( 12 )
region = Rect2( 22, 0, 11, 11 )

[sub_resource type="AtlasTexture" id=101]
atlas = ExtResource( 12 )
region = Rect2( 33, 0, 11, 11 )

[sub_resource type="AtlasTexture" id=102]
atlas = ExtResource( 12 )
region = Rect2( 44, 0, 11, 11 )

[sub_resource type="AtlasTexture" id=103]
atlas = ExtResource( 12 )
region = Rect2( 55, 0, 11, 11 )

[sub_resource type="SpriteFrames" id=104]
resource_local_to_scene = true
animations = [ {
"frames": [ SubResource( 1 ), SubResource( 2 ), SubResource( 3 ), SubResource( 4 ), SubResource( 5 ), SubResource( 6 ) ],
"loop": false,
"name": "BaseBullet_impact",
"speed": 14.0
}, {
"frames": [ SubResource( 7 ), SubResource( 8 ), SubResource( 9 ), SubResource( 10 ), SubResource( 11 ), SubResource( 12 ), SubResource( 13 ) ],
"loop": false,
"name": "AbsorberBullet_impact",
"speed": 17.0
}, {
"frames": [ SubResource( 14 ), SubResource( 15 ), SubResource( 16 ), SubResource( 17 ), SubResource( 18 ), SubResource( 19 ) ],
"loop": false,
"name": "PistolBullet_impact",
"speed": 18.0
}, {
"frames": [ SubResource( 20 ), SubResource( 21 ), SubResource( 22 ) ],
"loop": false,
"name": "PistolShooter_muzzle",
"speed": 18.0
}, {
"frames": [ SubResource( 23 ), SubResource( 24 ), SubResource( 25 ), SubResource( 26 ), SubResource( 27 ), SubResource( 28 ), SubResource( 29 ) ],
"loop": false,
"name": "MissileBullet_impact",
"speed": 15.0
}, {
"frames": [ SubResource( 30 ), SubResource( 31 ) ],
"loop": false,
"name": "SpreadShooter_muzzle",
"speed": 20.0
}, {
"frames": [ SubResource( 32 ), SubResource( 33 ), SubResource( 34 ), SubResource( 35 ) ],
"loop": true,
"name": "Base_muzzle",
"speed": 17.0
}, {
"frames": [ SubResource( 36 ), SubResource( 37 ), SubResource( 38 ), SubResource( 39 ), SubResource( 40 ), SubResource( 41 ), SubResource( 42 ) ],
"loop": true,
"name": "Stalker_Impact",
"speed": 15.0
}, {
"frames": [ SubResource( 43 ), SubResource( 44 ), SubResource( 45 ), SubResource( 46 ), SubResource( 47 ), SubResource( 48 ), SubResource( 49 ) ],
"loop": true,
"name": "Dragon_impact",
"speed": 15.0
}, {
"frames": [ SubResource( 50 ), SubResource( 51 ), SubResource( 52 ), SubResource( 53 ) ],
"loop": true,
"name": "Stalker_muzzle",
"speed": 18.0
}, {
"frames": [ SubResource( 54 ), SubResource( 55 ), SubResource( 56 ), SubResource( 57 ), SubResource( 58 ), SubResource( 59 ), SubResource( 60 ) ],
"loop": false,
"name": "MissileShooter_muzzle",
"speed": 35.0
}, {
"frames": [ SubResource( 61 ), SubResource( 62 ), SubResource( 63 ), SubResource( 64 ), SubResource( 65 ) ],
"loop": true,
"name": "death_orb",
"speed": 10.0
}, {
"frames": [ SubResource( 66 ), SubResource( 67 ), SubResource( 68 ) ],
"loop": false,
"name": "BaseShooter_muzzle",
"speed": 18.0
}, {
"frames": [ SubResource( 69 ), SubResource( 70 ), SubResource( 71 ), SubResource( 72 ), SubResource( 73 ), SubResource( 74 ), SubResource( 75 ), SubResource( 76 ), SubResource( 77 ), SubResource( 78 ), SubResource( 79 ), SubResource( 80 ) ],
"loop": false,
"name": "addon_explosion",
"speed": 14.0
}, {
"frames": [ SubResource( 81 ), SubResource( 82 ), SubResource( 83 ), SubResource( 84 ), SubResource( 85 ), SubResource( 86 ), SubResource( 87 ) ],
"loop": false,
"name": "SpreadBullet_impact",
"speed": 15.0
}, {
"frames": [ SubResource( 88 ), SubResource( 89 ), SubResource( 90 ), SubResource( 91 ), SubResource( 92 ), SubResource( 93 ) ],
"loop": true,
"name": "death_flash",
"speed": 12.0
}, {
"frames": [ SubResource( 94 ), SubResource( 95 ), SubResource( 96 ), SubResource( 97 ) ],
"loop": false,
"name": "AbsorberShooter_muzzle",
"speed": 18.0
}, {
"frames": [ SubResource( 98 ), SubResource( 99 ), SubResource( 100 ), SubResource( 101 ), SubResource( 102 ), SubResource( 103 ) ],
"loop": true,
"name": "Base_impact",
"speed": 14.0
} ]

[node name="AnimatedSprite" type="AnimatedSprite"]
frames = SubResource( 104 )
animation = "death_flash"
