; SPDX-FileCopyrightText: 2021 Adriel Dumas--Jondeau
; SPDX-FileCopyrightText: 2021 Luc Deligne
;
; SPDX-License-Identifier: MIT

[gd_scene load_steps=3 format=2]

[ext_resource path="res://guns/addons/laser/Laser.tscn" type="PackedScene" id=1]
[ext_resource path="res://guns/addons/laser/LaserShooter.gd" type="Script" id=2]

[node name="LaserShooter" type="Position2D"]
position = Vector2( 6, 0 )
script = ExtResource( 2 )
Bullet = ExtResource( 1 )
rate = 1.2
ammo_per_burst = 1
