; SPDX-FileCopyrightText: 2021 Adriel Dumas--Jondeau
; SPDX-FileCopyrightText: 2021 Luc Deligne
;
; SPDX-License-Identifier: MIT

[gd_scene load_steps=4 format=2]

[ext_resource path="res://addons/sprites/bonus/BonusSpriteframes.tres" type="SpriteFrames" id=1]
[ext_resource path="res://mobs/base/Loot.gd" type="Script" id=2]

[sub_resource type="CircleShape2D" id=1]
radius = 6.0

[node name="Loot" type="Area2D" groups=[
"loot",
]]
script = ExtResource( 2 )
shooters = {
null: 5,
Resource( "res://guns/addons/pistol/PistolShooter.tscn" ): 6,
Resource( "res://guns/addons/spread/SpreadShooter.tscn" ): 3,
Resource( "res://guns/addons/laser/LaserShooter.tscn" ): 1,
Resource( "res://guns/addons/missile/MissileShooter.tscn" ): 1,
Resource( "res://guns/addons/absorber/AbsorberShooter.tscn" ): 3
}

[node name="Hitbox" type="CollisionShape2D" parent="."]
shape = SubResource( 1 )

[node name="Sprite" type="AnimatedSprite" parent="."]
frames = ExtResource( 1 )
